{
  "gstg": {
    "name": "gstg-gitlab-gke",
    "project": "gitlab-staging-1",
    "region": "us-east1",
    "ssh_proxy": "console-01-sv-gstg.c.gitlab-staging-1.internal"
  },
  "gstg-us-east1-b": {
    "name": "gstg-us-east1-b",
    "project": "gitlab-staging-1",
    "region": "us-east1-b",
    "ssh_proxy": "console-01-sv-gstg.c.gitlab-staging-1.internal"
  },
  "gstg-us-east1-c": {
    "name": "gstg-us-east1-c",
    "project": "gitlab-staging-1",
    "region": "us-east1-c",
    "ssh_proxy": "console-01-sv-gstg.c.gitlab-staging-1.internal"
  },
  "gstg-us-east1-d": {
    "name": "gstg-us-east1-d",
    "project": "gitlab-staging-1",
    "region": "us-east1-d",
    "ssh_proxy": "console-01-sv-gstg.c.gitlab-staging-1.internal"
  },
  "gstg-gitlab-36dv2": {
    "name": "gitlab-36dv2",
    "project": "gitlab-staging-1",
    "region": "us-east1",
    "ssh_proxy": "console-01-sv-gstg.c.gitlab-staging-1.internal"
  },

  "gprd": {
    "name": "gprd-gitlab-gke",
    "project": "gitlab-production",
    "region": "us-east1",
    "ssh_proxy": "console-01-sv-gprd.c.gitlab-production.internal"
  },
  "gprd-us-east1-b": {
    "name": "gprd-us-east1-b",
    "project": "gitlab-production",
    "region": "us-east1-b",
    "ssh_proxy": "console-01-sv-gprd.c.gitlab-production.internal"
  },
  "gprd-us-east1-c": {
    "name": "gprd-us-east1-c",
    "project": "gitlab-production",
    "region": "us-east1-c",
    "ssh_proxy": "console-01-sv-gprd.c.gitlab-production.internal"
  },
  "gprd-us-east1-d": {
    "name": "gprd-us-east1-d",
    "project": "gitlab-production",
    "region": "us-east1-d",
    "ssh_proxy": "console-01-sv-gprd.c.gitlab-production.internal"
  },

  "stgsub": {
    "name": "stgsub-customers-gke",
    "project": "gitlab-subscriptions-staging",
    "region": "us-east1",
    "ssh_proxy": "bastion-01-inf-stgsub.c.gitlab-subscriptions-staging.internal"
  },
  "stgsub-ref": {
    "name": "stgsub-ref-customers-gke",
    "project": "gitlab-subscriptions-stg-ref",
    "region": "us-east1",
    "ssh_proxy": "bastion-01-inf-stgsub-ref.c.gitlab-subscriptions-stg-ref.internal"
  },
  "prdsub": {
    "name": "prdsub-customers-gke",
    "project": "gitlab-subscriptions-prod",
    "region": "us-east1",
    "ssh_proxy": "bastion-01-inf-prdsub.c.gitlab-subscriptions-prod.internal"
  },

  "pre": {
    "name": "pre-gitlab-gke",
    "project": "gitlab-pre",
    "region": "us-east1",
    "ssh_proxy": null
  },

  "ops": {
    "name": "ops-gitlab-gke",
    "project": "gitlab-ops",
    "region": "us-east1",
    "ssh_proxy": "bastion-01-inf-ops.c.gitlab-ops.internal"
  },
  "ops-central": {
    "name": "ops-central",
    "project": "gitlab-ops",
    "region": "us-central1",
    "ssh_proxy": "bastion-01-inf-ops.c.gitlab-ops.internal"
  },

  "db-benchmarking": {
    "name": "db-benchmarking-gitlab-gke",
    "project": "gitlab-db-benchmarking",
    "region": "us-east1",
    "ssh_proxy": "bastion-01-inf-db-benchmarking.c.gitlab-db-benchmarking.internal"
  },
  "release": {
    "name": "release-gitlab-gke",
    "project": "gitlab-release",
    "region": "us-east1",
    "ssh_proxy": "bastion-01-inf-release.c.gitlab-release.internal"
  }
}
